miracle_grow/sim/wishbone/master/design.vcd
$date
	Fri Jul  8 13:29:55 2011
$end
$version
	Icarus Verilog
$end
$timescale
	1s
$end
$scope module wishbone_master_tb $end
$var wire 1 ! master_ready $end
$var wire 32 " out_address [31:0] $end
$var wire 32 # out_data [31:0] $end
$var wire 1 $ out_en $end
$var wire 32 % out_status [31:0] $end
$var wire 32 & wb_addr_o [31:0] $end
$var wire 1 ' wb_cyc_o $end
$var wire 32 ( wb_dat_o [31:0] $end
$var wire 1 ) wb_msk_o $end
$var wire 1 * wb_sel_o $end
$var wire 1 + wb_str_o $end
$var wire 1 , wb_we_o $end
$var integer 32 - ch [31:0] $end
$var reg 1 . clk $end
$var integer 32 / data_count [31:0] $end
$var integer 32 0 fd_in [31:0] $end
$var integer 32 1 fd_out [31:0] $end
$var reg 32 2 in_address [31:0] $end
$var reg 32 3 in_command [31:0] $end
$var reg 32 4 in_data [31:0] $end
$var reg 1 5 in_ready $end
$var reg 1 6 out_ready $end
$var integer 32 7 read_count [31:0] $end
$var reg 1 8 rst $end
$var integer 32 9 timeout_count [31:0] $end
$var reg 1 : wb_ack_i $end
$var reg 32 ; wb_dat_i [31:0] $end
$scope module wm $end
$var wire 1 < clk $end
$var wire 32 = in_address [31:0] $end
$var wire 32 > in_command [31:0] $end
$var wire 32 ? in_data [31:0] $end
$var wire 1 @ in_ready $end
$var wire 1 A out_ready $end
$var wire 1 B rst $end
$var wire 1 C wb_ack_i $end
$var wire 32 D wb_dat_i [31:0] $end
$var reg 32 E local_address [31:0] $end
$var reg 32 F local_command [31:0] $end
$var reg 32 G local_data [31:0] $end
$var reg 32 H master_flags [31:0] $end
$var reg 1 I master_ready $end
$var reg 32 J out_address [31:0] $end
$var reg 32 K out_data [31:0] $end
$var reg 1 L out_en $end
$var reg 32 M out_status [31:0] $end
$var reg 32 N rw_count [31:0] $end
$var reg 32 O state [31:0] $end
$var reg 32 P wb_addr_o [31:0] $end
$var reg 1 Q wb_cyc_o $end
$var reg 32 R wb_dat_o [31:0] $end
$var reg 1 S wb_msk_o $end
$var reg 1 T wb_sel_o $end
$var reg 1 U wb_str_o $end
$var reg 1 V wb_we_o $end
$upscope $end
$upscope $end
$scope module wishbone_master_tb $end
$scope module wm $end
$upscope $end
$upscope $end
$enddefinitions $end
#0
$dumpvars
xV
xU
xT
xS
bx R
xQ
bx P
b0 O
b0 N
b0 M
0L
b0 K
b0 J
xI
b0 H
b0 G
b0 F
b0 E
bx D
xC
0B
xA
x@
bx ?
bx >
bx =
0<
bx ;
x:
b0 9
08
b0 7
x6
x5
bx 4
bx 3
bx 2
b10000000000000000000000000000100 1
b10000000000000000000000000000011 0
b0 /
0.
bx -
x,
x+
x*
x)
bx (
x'
bx &
b0 %
0$
b0 #
b0 "
x!
$end
#2
1I
1!
1.
1<
#4
0:
0C
b0 ;
b0 D
06
0A
b0 4
b0 ?
b0 2
b0 =
b0 3
b0 >
05
0@
18
1B
0.
0<
#6
1.
1<
#8
0.
0<
#10
1.
1<
#12
0.
0<
#14
1.
1<
#16
0.
0<
#18
1.
1<
#20
0.
0<
#22
1.
1<
#24
16
1A
08
0B
0.
0<
b11 7
b11111110110111001011101010011000 4
b11111110110111001011101010011000 ?
b10010001101000101011001111000 2
b10010001101000101011001111000 =
#26
1.
1<
#28
15
1@
0.
0<
b10100 9
#30
1L
1$
b1111010101111 K
b1111010101111 #
b11111111111111111111111111111111 M
b11111111111111111111111111111111 %
b11111110110111001011101010011000 G
b10010001101000101011001111000 E
05
0@
1.
1<
#32
0.
0<
b10011001100110011001100110011001 4
b10011001100110011001100110011001 ?
b1010101010101010101010101010101 2
b1010101010101010101010101010101 =
b1 3
b1 >
b11111111111111111111111111111111 9
#34
0L
0$
1.
1<
#36
15
1@
0.
0<
b10100 9
#38
1L
1$
b11111111111111111111111111111110 M
b11111111111111111111111111111110 %
b10011001100110011001100110011001 G
b1010101010101010101010101010101 E
b1 F
05
0@
1.
1<
#40
0.
0<
b0 4
b0 ?
b10001000100010001000100010001 2
b10001000100010001000100010001 =
b10 3
b10 >
b11111111111111111111111111111111 9
#42
0L
0$
1.
1<
#44
15
1@
0.
0<
b10100 9
#46
1L
1$
b11111111111111111111111111111101 M
b11111111111111111111111111111101 %
b0 G
b10001000100010001000100010001 E
b10 F
05
0@
1.
1<
#48
0.
0<
b10 4
b10 ?
b0 2
b0 =
b11 3
b11 >
b11111111111111111111111111111111 9
#50
0L
0$
1.
1<
#52
15
1@
0.
0<
b10100 9
b10 /
#54
b1 O
b10 N
0I
0!
1L
1$
b11111111111111111111111111111100 M
b11111111111111111111111111111100 %
b10 G
b0 E
b11 F
05
0@
1.
1<
#56
0.
0<
#58
1I
1!
0L
0$
1.
1<
#60
b1 /
b10100 9
0.
0<
b1 7
b11111110 4
b11111110 ?
#62
1.
1<
#64
15
1@
0.
0<
#66
b1 N
b11111110 K
b11111110 #
0I
0!
b11111110 G
1.
1<
#68
05
0@
0.
0<
#70
1I
1!
b10011 9
1.
1<
#72
b0 /
b10100 9
0.
0<
b1100101010000110100000100010000 4
b1100101010000110100000100010000 ?
#74
1.
1<
#76
15
1@
0.
0<
#78
1L
1$
b0 O
b0 N
b1100101010000110100000100010000 K
b1100101010000110100000100010000 #
0I
0!
b1100101010000110100000100010000 G
1.
1<
#80
05
0@
0.
0<
b11 7
b1 4
b1 ?
b100 3
b100 >
b10100 9
#82
1I
1!
0L
0$
1.
1<
#84
15
1@
0.
0<
b1 /
#86
b10 O
b1 N
0I
0!
1L
1$
b11111111111111111111111111111011 M
b11111111111111111111111111111011 %
b1 G
b100 F
05
0@
1.
1<
#88
0.
0<
#90
1I
1!
0L
0$
1.
1<
#92
b0 /
b10100 9
0.
0<
b1 7
b110100 4
b110100 ?
#94
1.
1<
#96
15
1@
0.
0<
#98
1L
1$
b0 O
b0 N
b110100 K
b110100 #
0I
0!
b110100 G
1.
1<
#100
05
0@
0.
0<
b11 7
b1 4
b1 ?
b101 3
b101 >
b10100 9
#102
1I
1!
0L
0$
1.
1<
#104
15
1@
0.
0<
b1 /
#106
b11 O
0I
0!
b1 N
1L
1$
b11111111111111111111111111111010 M
b11111111111111111111111111111010 %
b1 G
b101 F
1.
1<
#108
0.
0<
b110 3
b110 >
b0 /
#110
b0 O
b0 N
b1010101010101010101010101010101 K
b1010101010101010101010101010101 #
b110 F
1I
1!
1L
1$
1.
1<
#112
0.
0<
b1 /
#114
b100 O
b1 N
0I
0!
b11111111111111111111111111111001 M
b11111111111111111111111111111001 %
1L
1$
1.
1<
#116
0.
0<
b100010001000100010001000100010 4
b100010001000100010001000100010 ?
b11001100110011001100110011001100 2
b11001100110011001100110011001100 =
b111 3
b111 >
b0 /
#118
b0 O
b0 N
b100010001000100010001000100010 G
b11001100110011001100110011001100 E
b111 F
1I
1!
1L
1$
1.
1<
#120
0.
0<
#122
b11111111111111111111111111111000 M
b11111111111111111111111111111000 %
1L
1$
05
0@
1.
1<
#124
0.
0<
b10001000100010001000100010001 4
b10001000100010001000100010001 ?
b0 2
b0 =
b1000 3
b1000 >
b11111111111111111111111111111111 9
#126
0L
0$
1.
1<
#128
15
1@
0.
0<
b10100 9
#130
1L
1$
b11111111111111111111111111110111 M
b11111111111111111111111111110111 %
b10001000100010001000100010001 G
b0 E
b1000 F
05
0@
1.
1<
#132
0.
0<
b11111111111111111111111111111111 9
